<svg xmlns="http://www.w3.org/2000/svg" width="52" height="52" viewBox="0 0 52 52">
  <g id="Grupo_2301" data-name="Grupo 2301" transform="translate(-36 -431)">
    <circle id="Elipse_4" data-name="Elipse 4" cx="26" cy="26" r="26" transform="translate(36 431)" fill="#faf1ff"/>
    <g id="Grupo_2300" data-name="Grupo 2300" transform="translate(664.324 95.775)">
      <g id="Grupo_2298" data-name="Grupo 2298" transform="translate(-617.324 352.679)">
        <path id="Caminho_3174" data-name="Caminho 3174" d="M-617.324,406.9a.621.621,0,0,1,.643-.263c.3.037.609.048.9.111a2.446,2.446,0,0,1,1.833,1.517c.039.092.123.22.2.232a2.8,2.8,0,0,1,2.362,2.514,11.665,11.665,0,0,1,.19,2.982c-.027.653-.061,1.306-.093,1.986A4.191,4.191,0,0,1-608.549,417c.313.22.387.461.219.688s-.4.22-.7.018a10.8,10.8,0,0,0-.969-.6,1.728,1.728,0,0,0-2.343.452c.487.423.97.851,1.462,1.268.617.523,1.249,1.028,1.856,1.562a.706.706,0,0,1,.241.472.414.414,0,0,1-.713.234q-.918-.748-1.819-1.517c-.608-.518-1.209-1.046-1.81-1.573-.36-.315-.368-.514-.034-.853a3.135,3.135,0,0,1,.331-.256c-.421-.384-.782-.723-1.154-1.048a.709.709,0,0,1-.255-.573c-.013-1.389-.01-2.779-.07-4.166A12.908,12.908,0,0,0-614.6,409a1.7,1.7,0,0,0-1.492-1.447c-.1-.015-.2-.019-.339-.032.023.36.04.69.065,1.019a51.848,51.848,0,0,1-.026,7.927c-.025.322-.052.646-.051.969a.51.51,0,0,0,.129.319,48.109,48.109,0,0,0,7.072,6.24,1.025,1.025,0,0,1,.484,1.017c-.043.767-.009,1.539.005,2.308,0,.262-.072.452-.335.522a.429.429,0,0,1-.519-.458c-.021-.769-.032-1.539-.021-2.309a.462.462,0,0,0-.211-.444,50.905,50.905,0,0,1-7.223-6.415c-.09-.1-.174-.2-.261-.3v-.628c.024-.281.051-.562.073-.843a50.947,50.947,0,0,0,.029-7.848c-.028-.358-.068-.715-.1-1.072Zm3.733,2.516c.051.6.129,1.182.146,1.768.038,1.273.043,2.548.067,3.821a.45.45,0,0,0,.072.287c.351.343.719.669,1.094,1.013a.441.441,0,0,0,.043-.107c.03-1.415.1-2.831.067-4.244a5.108,5.108,0,0,0-.392-1.591A1.454,1.454,0,0,0-613.591,409.413Z" transform="translate(617.324 -406.626)" fill="#515151"/>
        <path id="Caminho_3175" data-name="Caminho 3175" d="M-403.035,407.609a1.557,1.557,0,0,0-1.625,1.012,6.542,6.542,0,0,0-.395,1.8c-.087,1.613-.1,3.231-.13,4.847a.843.843,0,0,1-.308.694c-.356.3-.691.624-1.095.992a4.243,4.243,0,0,1,.352.292c.293.3.288.52-.03.794q-1.621,1.4-3.249,2.786c-.123.105-.249.207-.376.306-.268.208-.509.2-.675-.011s-.116-.442.148-.663c.613-.512,1.23-1.02,1.84-1.536.5-.424.992-.858,1.487-1.287a1.632,1.632,0,0,0-2.156-.536,12.071,12.071,0,0,0-1.958,1.315c-1.25,1.025-2.457,2.1-3.675,3.166a.477.477,0,0,0-.146.314q-.043,2.324-.062,4.649c0,.285.034.57.045.855s-.132.488-.377.514a.428.428,0,0,1-.47-.457c-.041-1.121-.087-2.243-.086-3.365,0-.845.063-1.691.121-2.536a.7.7,0,0,1,.209-.439c1.534-1.323,3.068-2.646,4.628-3.938a4.715,4.715,0,0,1,2.163-1.1c.221-.039.449-.036.7-.055-.028-.56-.059-1.118-.084-1.675a11.377,11.377,0,0,1,.271-3.625,2.755,2.755,0,0,1,1.559-1.958,9.328,9.328,0,0,0,1.241-.995,2.613,2.613,0,0,1,1.927-1.028c.179-.022.36-.034.541-.04.449-.017.609.143.595.588-.044,1.388-.127,2.776-.123,4.164.005,2.006.064,4.013.122,6.019a1.058,1.058,0,0,1-.325.889c-1.431,1.351-2.849,2.716-4.278,4.07-.247.234-.5.227-.675.021s-.119-.442.12-.669q2.069-1.964,4.126-3.94a.6.6,0,0,0,.153-.419c-.145-2.862-.155-5.724-.049-8.588C-403.022,408.426-403.035,408.018-403.035,407.609Zm-4.233,8.8c.367-.336.679-.636,1.008-.915a.585.585,0,0,0,.218-.488q.044-2.307.116-4.614c.009-.3.066-.606.1-.927a1.545,1.545,0,0,0-1.116.944,5.725,5.725,0,0,0-.356,1.223,17.446,17.446,0,0,0-.034,3.81C-407.313,415.746-407.292,416.046-407.268,416.414Z" transform="translate(431.336 -406.69)" fill="#515151"/>
        <path id="Caminho_3176" data-name="Caminho 3176" d="M-483.429,567.1c-.038,1.007-.071,1.871-.1,2.735,0,.057-.006.114-.013.171-.039.311-.216.488-.465.468s-.4-.216-.388-.532c.028-1.168.068-2.337.074-3.505,0-.655-.043-1.311-.091-1.964a.622.622,0,0,0-.2-.376c-.858-.766-1.729-1.517-2.59-2.279a.6.6,0,0,1-.23-.338.5.5,0,0,1,.177-.4.57.57,0,0,1,.489.015,9.134,9.134,0,0,1,.849.715c.68.594,1.357,1.192,2.042,1.78a.786.786,0,0,1,.307.608C-483.531,565.213-483.473,566.228-483.429,567.1Z" transform="translate(497.341 -549.255)" fill="#515151"/>
        <path id="Caminho_3177" data-name="Caminho 3177" d="M-346.43,625.29c0-.858.01-1.684-.006-2.509a.637.637,0,0,1,.287-.6c.466-.327.917-.675,1.375-1.015.282-.21.539-.2.7.013s.1.451-.19.674q-.555.423-1.119.834a.37.37,0,0,0-.184.345c.011.759.005,1.518-.009,2.277-.007.385-.176.58-.449.574S-346.449,625.66-346.43,625.29Z" transform="translate(367.098 -604.659)" fill="#515151"/>
      </g>
      <g id="Grupo_2299" data-name="Grupo 2299" transform="translate(-610.926 348.225)">
        <path id="Caminho_3178" data-name="Caminho 3178" d="M-524.632,360.572c.625-.508,1.242-.992,1.838-1.5,1.07-.91,2.142-1.819,3.182-2.759a6.413,6.413,0,0,0,1.59-2.084,3.484,3.484,0,0,0-.129-3.322,3.087,3.087,0,0,0-5.1-.4,7.6,7.6,0,0,0-.83,1.427c-.189.38-.317.533-.621.533s-.474-.149-.62-.564a4.2,4.2,0,0,0-.97-1.571,3.109,3.109,0,0,0-5.021.678c-.114.214-.186.447-.289.667a.584.584,0,0,1-.726.309.538.538,0,0,1-.372-.67,4.334,4.334,0,0,1,5.717-2.8,4.425,4.425,0,0,1,2.009,1.611c.088.122.171.247.264.383.193-.255.365-.512.568-.744a4.124,4.124,0,0,1,4.118-1.444,4.12,4.12,0,0,1,3.319,3.005,4.724,4.724,0,0,1-.845,4.381,16.056,16.056,0,0,1-2.7,2.739c-1.288,1.083-2.6,2.142-3.9,3.208a.617.617,0,0,1-.891.055c-1.726-1.41-3.459-2.815-5.164-4.247a14.306,14.306,0,0,1-1.31-1.349.539.539,0,0,1,.007-.859.629.629,0,0,1,.911.172,25.855,25.855,0,0,0,3.562,3.222C-526.254,359.284-525.457,359.913-524.632,360.572Z" transform="translate(532.784 -348.225)" fill="#515151"/>
        <path id="Caminho_3179" data-name="Caminho 3179" d="M-532.853,413.689a.571.571,0,0,1-.587-.564.582.582,0,0,1,.583-.544.578.578,0,0,1,.587.567A.571.571,0,0,1-532.853,413.689Z" transform="translate(533.441 -407.672)" fill="#515151"/>
      </g>
    </g>
  </g>
</svg>
